Gráfico animado :: Jefferson Barbosa — Portfólio
…
Mas estou interessado nas 10 maiores causas de morte em cada ano e para obter este resultado uso a seguinte sequência no dplyr.

dados <- dados %>%
  group_by(Ano) %>%
  top_n(n = 10, wt = Taxa.de.mortalidade) %>%
  arrange(Ano, Taxa.de.mortalidade) %>%
  select(Ano, Causa, Taxa.de.mortalidade)

E fico com o seguinte data frame.

dados

## # A tibble: 280 x 3
## # Groups:   Ano [28]
##      Ano Causa                           Taxa.de.mortalidade
##    <int> <fct>                                         <dbl>
##  1  1990 Violência interpessoal                         27.0
##  2  1990 Diabetes mellitus                              27.9
##  3  1990 Ds diarreicas                                  29.2
##  4  1990 Acidentes de trânsito                          32.8
##  5  1990 Transtornos do período neonatal                43.7
##  6  1990 Alzheimer e outras demências                   45.4
##  7  1990 D pulmonar obstrutiva crônica                  52.5
##  8  1990 Infec vias aéreas infer                        60.6
##  9  1990 D cerebrovascular                             123. 
## 10  1990 D isquêmica do coração                        169. 
## # … with 270 more rows
…
